{
  "header": {
    "statut": 200,
    "message": "ok"
  },
  "etablissement": {
    "siren": "012345678",
    "nic": "00100",
    "siret": "01234567800100",
    "statutDiffusionEtablissement": "O",
    "dateCreationEtablissement": "2022-12-31",
    "trancheEffectifsEtablissement": "50",
    "anneeEffectifsEtablissement": null,
    "activitePrincipaleRegistreMetiersEtablissement": null,
    "dateDernierTraitementEtablissement": "2023-05-07T03:33:33",
    "etablissementSiege": true,
    "nombrePeriodesEtablissement": 1,
    "uniteLegale": {
      "etatAdministratifUniteLegale": "A",
      "statutDiffusionUniteLegale": "O",
      "dateCreationUniteLegale": "2022-12-31",
      "categorieJuridiqueUniteLegale": "5710",
      "denominationUniteLegale": "FLEX",
      "sigleUniteLegale": null,
      "denominationUsuelle1UniteLegale": null,
      "denominationUsuelle2UniteLegale": null,
      "denominationUsuelle3UniteLegale": null,
      "sexeUniteLegale": null,
      "nomUniteLegale": null,
      "nomUsageUniteLegale": null,
      "prenom1UniteLegale": null,
      "prenom2UniteLegale": null,
      "prenom3UniteLegale": null,
      "prenom4UniteLegale": null,
      "prenomUsuelUniteLegale": null,
      "pseudonymeUniteLegale": null,
      "activitePrincipaleUniteLegale": "30.30Z",
      "nomenclatureActivitePrincipaleUniteLegale": "NAFRev2",
      "identifiantAssociationUniteLegale": null,
      "economieSocialeSolidaireUniteLegale": "N",
      "societeMissionUniteLegale": "N",
      "caractereEmployeurUniteLegale": "O",
      "trancheEffectifsUniteLegale": "50",
      "anneeEffectifsUniteLegale": "2022",
      "nicSiegeUniteLegale": "00100",
      "dateDernierTraitementUniteLegale": "2023-05-07T03:33:33",
      "categorieEntreprise": "GE",
      "anneeCategorieEntreprise": "2022"
    },
    "adresseEtablissement": {
      "complementAdresseEtablissement": null,
      "numeroVoieEtablissement": "1312",
      "indiceRepetitionEtablissement": null,
      "typeVoieEtablissement": "RUE",
      "libelleVoieEtablissement": "DE LA SOUS-TRAITANCE",
      "codePostalEtablissement": "75001",
      "libelleCommuneEtablissement": "PARIS",
      "libelleCommuneEtrangerEtablissement": null,
      "distributionSpecialeEtablissement": null,
      "codeCommuneEtablissement": "75101",
      "codeCedexEtablissement": null,
      "libelleCedexEtablissement": null,
      "codePaysEtrangerEtablissement": null,
      "libellePaysEtrangerEtablissement": null
    },
    "adresse2Etablissement": {
      "complementAdresse2Etablissement": null,
      "numeroVoie2Etablissement": null,
      "indiceRepetition2Etablissement": null,
      "typeVoie2Etablissement": null,
      "libelleVoie2Etablissement": null,
      "codePostal2Etablissement": null,
      "libelleCommune2Etablissement": null,
      "libelleCommuneEtranger2Etablissement": null,
      "distributionSpeciale2Etablissement": null,
      "codeCommune2Etablissement": null,
      "codeCedex2Etablissement": null,
      "libelleCedex2Etablissement": null,
      "codePaysEtranger2Etablissement": null,
      "libellePaysEtranger2Etablissement": null
    },
    "periodesEtablissement": [
      {
        "dateFin": null,
        "dateDebut": "2022-12-31",
        "etatAdministratifEtablissement": "A",
        "changementEtatAdministratifEtablissement": false,
        "enseigne1Etablissement": null,
        "enseigne2Etablissement": null,
        "enseigne3Etablissement": null,
        "changementEnseigneEtablissement": false,
        "denominationUsuelleEtablissement": null,
        "changementDenominationUsuelleEtablissement": false,
        "activitePrincipaleEtablissement": "82.99Z",
        "nomenclatureActivitePrincipaleEtablissement": "NAFRev2",
        "changementActivitePrincipaleEtablissement": false,
        "caractereEmployeurEtablissement": "O",
        "changementCaractereEmployeurEtablissement": false
      }
    ]
  }
}