{
  "header": {
    "statut": 200,
    "message": "OK"
  },
  "uniteLegale": {
    "siren": "012345678",
    "statutDiffusionUniteLegale": "O",
    "dateCreationUniteLegale": "2022-12-31",
    "sigleUniteLegale": null,
    "sexeUniteLegale": null,
    "prenom1UniteLegale": null,
    "prenom2UniteLegale": null,
    "prenom3UniteLegale": null,
    "prenom4UniteLegale": null,
    "prenomUsuelUniteLegale": null,
    "pseudonymeUniteLegale": null,
    "identifiantAssociationUniteLegale": null,
    "trancheEffectifsUniteLegale": "52",
    "anneeEffectifsUniteLegale": "2022",
    "dateDernierTraitementUniteLegale": "2023-05-07T03:33:33",
    "nombrePeriodesUniteLegale": 16,
    "categorieEntreprise": "GE",
    "anneeCategorieEntreprise": "2020",
    "periodesUniteLegale": [
      {
        "dateFin": null,
        "dateDebut": "2022-12-31",
        "etatAdministratifUniteLegale": "A",
        "changementEtatAdministratifUniteLegale": false,
        "nomUniteLegale": null,
        "changementNomUniteLegale": false,
        "nomUsageUniteLegale": null,
        "changementNomUsageUniteLegale": false,
        "denominationUniteLegale": "FLEX",
        "changementDenominationUniteLegale": false,
        "denominationUsuelle1UniteLegale": null,
        "denominationUsuelle2UniteLegale": null,
        "denominationUsuelle3UniteLegale": null,
        "changementDenominationUsuelleUniteLegale": false,
        "categorieJuridiqueUniteLegale": "5710",
        "changementCategorieJuridiqueUniteLegale": false,
        "activitePrincipaleUniteLegale": "30.30Z",
        "nomenclatureActivitePrincipaleUniteLegale": "NAFRev2",
        "changementActivitePrincipaleUniteLegale": false,
        "nicSiegeUniteLegale": "00100",
        "changementNicSiegeUniteLegale": false,
        "economieSocialeSolidaireUniteLegale": "N",
        "changementEconomieSocialeSolidaireUniteLegale": false,
        "societeMissionUniteLegale": "N",
        "changementSocieteMissionUniteLegale": true,
        "caractereEmployeurUniteLegale": "O",
        "changementCaractereEmployeurUniteLegale": false
      }
    ]
  }
}